codeA2/generated/ALU.vcd
$date
2021-10-19T09:12+0000
$end
$version
0.2
$end
$comment

$end
$timescale 1ns  $end
$scope module ALU $end
 $var wire 1 ! _GEN_16 $end
 $var wire 32 " _GEN_10 $end
 $var wire 32 # _GEN_2 $end
 $var wire 1 $ _T $end
 $var wire 32 % _GEN_19 $end
 $var wire 1 & _GEN_5 $end
 $var wire 64 ' _GEN_13 $end
 $var wire 32 ( io_oper2 $end
 $var wire 32 ) _GEN_8 $end
 $var wire 6 * io_sel $end
 $var wire 1 + _GEN_12 $end
 $var wire 64 , _GEN_15 $end
 $var wire 1 - _GEN_7 $end
 $var wire 32 . io_oper1 $end
 $var wire 32 / _GEN_4 $end
 $var wire 1 0 clock $end
 $var wire 32 1 io_result $end
 $var wire 64 2 _GEN_17 $end
 $var wire 64 3 _GEN_11 $end
 $var wire 1 4 _GEN_14 $end
 $var wire 32 5 _GEN_6 $end
 $var wire 1 6 _GEN_9 $end
 $var wire 1 7 reset $end
 $var wire 32 8 _GEN_3 $end
 $var wire 1 9 io_comparisonResult $end
$upscope $end
$enddefinitions $end
$dumpvars
04
b00000000000000000000000000000000 5
0&
0-
b00000000000000000000000000000000 .
b00000000000000000000000000000000 (
b00000000000000000000000000000000 /
b0000000000000000000000000000000000000000000000000000000000000000 '
06
0!
00
b00000000000000000000000000000000 "
b00000000000000000000000000000000 1
b00000000000000000000000000000000 )
07
b00000000000000000000000000000000 8
b00000000000000000000000000000000 #
b000000 *
09
b0000000000000000000000000000000000000000000000000000000000000000 2
0+
b0000000000000000000000000000000000000000000000000000000000000000 3
b00000000000000000000000000000000 %
0$
b0000000000000000000000000000000000000000000000000000000000000000 ,
$end
#0
17
#1
10
#6
00
#11
10
#16
00
#21
10
#26
00
#31
10
#36
00
#41
10
#46
00
b00000000000000000000000000010011 %
b00000000000000000000000000010011 1
b00000000000000000000000000001001 .
b0000000000000000000000000000000000000000000000000000000000010011 2
b010000 *
1$
b00000000000000000000000000001010 (
07
#51
10
#56
00
b010001 *
0$
b0000000000000000000000000000000000000000000000000000000000010011 ,
#61
10
#66
00
b00000000000000000000000000010100 %
b00000000000000000000000000010100 1
b00000000000000000000000000011110 .
b0000000000000000000000000000000000000000000000000000000000010100 2
b010010 *
b0000000000000000000000000000000000000000000000000000000000010100 '
b0000000000000000000000000000000000000000000000000000000000010100 ,
#71
10
#76
b0000000000000000000000000000000000000000000000000000000001011010 3
00
b00000000000000000000000001011010 %
b00000000000000000000000001011010 1
b00000000000000000000000000001001 .
b0000000000000000000000000000000000000000000000000000000001011010 2
b100000 *
b0000000000000000000000000000000000000000000000000000000001011010 '
b0000000000000000000000000000000000000000000000000000000001011010 ,
#81
10
#86
b0000000000000000000000000000000000000000000000000000000000000000 3
00
1!
b00000000000000000000000000000000 %
14
b00000000000000000000000000000000 1
b0000000000000000000000000000000000000000000000000000000000000000 2
b000100 *
b0000000000000000000000000000000000000000000000000000000000000000 '
16
19
1+
b0000000000000000000000000000000000000000000000000000000000000000 ,
#91
10
#96
0!
00
04
b000101 *
09
06
0+
#101
10
#106
1!
00
1-
14
b00000000000000000000000000001010 .
19
16
1+
#111
10
#116
00
b00000000000000000000000000001001 .
1&
b000110 *
#121
10
#126
0!
00
0-
04
b00000000000000000000000000001010 .
0&
09
06
0+
#131
10
#136
00
b00000000000000000000000000001011 .
